[
    {
        "id_account": 10001,
        "client": 564123,
        "type": "CC",
        "currency": "ARS",
        "cbu": "2548132014569852331450",
        "alias": "EMI.MARTINEZ.ARS",
        "balance": 1270710000
    },
    {
        "id_account": 10002,
        "client": 564123,
        "type": "CC",
        "currency": "ARS",
        "cbu": "2548132014569852331450",
        "alias": "EMI.MARTINEZ.USD",
        "balance": 25010000
    },
    {
        "id_account": 10003,
        "client": 224683,
        "type": "CC",
        "currency": "ARS",
        "cbu": "2548132014569852331450",
        "alias": "NICO.OTA.ARS",
        "balance": 355001500
    },
    {
        "id_account": 10004,
        "client": 224683,
        "type": "CC",
        "currency": "ARS",
        "cbu": "2548132014569852331450",
        "alias": "NICO.OTA.USD",
        "balance": 254549000
    },
    {
        "id_account": 10005,
        "client": 681234,
        "type": "CC",
        "currency": "ARS",
        "cbu": "2548132014569852331450",
        "alias": "CUTI.ROMERO.ARS",
        "balance": 4505042000
    },
    {
        "id_account": 10006,
        "client": 681234,
        "type": "CC",
        "currency": "ARS",
        "cbu": "2548132014569852331450",
        "alias": "CUTI.ROMERO.USD",
        "balance": 26810000
    },
    {
        "id_account": 10007,
        "client": 223879,
        "type": "CC",
        "currency": "ARS",
        "cbu": "2548132014569852331450",
        "alias": "NMOLINA.ARS",
        "balance": 1505502010
    },
    {
        "id_account": 10008,
        "client": 223879,
        "type": "CC",
        "currency": "ARS",
        "cbu": "2548132014569852331450",
        "alias": "NMOLINA.ARS",
        "balance": 9040500
    },
    {
        "id_account": 10009,
        "client": 579246,
        "type": "CC",
        "currency": "ARS",
        "cbu": "2548132014569852331450",
        "alias": "TAGLIA.ARS",
        "balance": 975000000
    },
    {
        "id_account": 10010,
        "client": 579246,
        "type": "CC",
        "currency": "ARS",
        "cbu": "2548132014569852331450",
        "alias": "TAGLIA.USD",
        "balance": 5800000
    },
    {
        "id_account": 10011,
        "client": 338146,
        "type": "CC",
        "currency": "ARS",
        "cbu": "2548132014569852331450",
        "alias": "ENZOFE.ARS",
        "balance": 340322010
    },
    {
        "id_account": 10012,
        "client": 338146,
        "type": "CC",
        "currency": "ARS",
        "cbu": "2548132014569852331450",
        "alias": "ENZOFE.USD",
        "balance": 45000000
    },
    {
        "id_account": 10013,
        "client": 873346,
        "type": "CC",
        "currency": "ARS",
        "cbu": "2548132014569852331450",
        "alias": "ALEXIS.MC.ARS",
        "balance": 143300200
    },
    {
        "id_account": 10014,
        "client": 873346,
        "type": "CC",
        "currency": "ARS",
        "cbu": "2548132014569852331450",
        "alias": "ALEXIS.MC.USD",
        "balance": 15800000
    },
    {
        "id_account": 10015,
        "client": 366100,
        "type": "CC",
        "currency": "ARS",
        "cbu": "2548132014569852331450",
        "alias": "DEPAUL.ARS",
        "balance": 250550000
    },
    {
        "id_account": 10016,
        "client": 366100,
        "type": "CC",
        "currency": "ARS",
        "cbu": "2548132014569852331450",
        "alias": "DEPAUL.USD",
        "balance": 50200000
    },
    {
        "id_account": 10017,
        "client": 528213,
        "type": "CC",
        "currency": "ARS",
        "cbu": "2548132014569852331450",
        "alias": "ANGEL.DIMARIA.ARS",
        "balance": 6142002120
    },
    {
        "id_account": 10018,
        "client": 528213,
        "type": "CC",
        "currency": "ARS",
        "cbu": "2548132014569852331450",
        "alias": "ANGEL.DIMARIA.USD",
        "balance": 98000000
    },
    {
        "id_account": 10019,
        "client": 181222,
        "type": "CC",
        "currency": "ARS",
        "cbu": "2548132014569852331450",
        "alias": "LEOMESSI.ARS",
        "balance": 450000000
    },
    {
        "id_account": 10020,
        "client": 181222,
        "type": "CC",
        "currency": "ARS",
        "cbu": "2548132014569852331450",
        "alias": "LEOMESSI.USD",
        "balance": 500000000
    },
    {
        "id_account": 10021,
        "client": 749851,
        "type": "CC",
        "currency": "ARS",
        "cbu": "2548132014569852331450",
        "alias": "JULIAN.ALV.ARS",
        "balance": 420207700
    },
    {
        "id_account": 10022,
        "client": 749851,
        "type": "CC",
        "currency": "ARS",
        "cbu": "2548132014569852331450",
        "alias": "JULIAN.ALV.USD",
        "balance": 12000450
    }
]